{
    "name": "DEMO_EN",
    "preprocess_mode": "en",
    "total_compress": 9.00,
    "extract_compress": 6.00,
    "origins_path": "__data/demo_en/origins/",
    "refs_path": "__data/demo_en/refs/",
    "results_path": "__data/results/",
    "model_path": "__data/models/en_180k"
}